R tutorial China: Traits
…
traits.wtsL <- traits.wts %>% 
pivot_longer(cols = c("C_percent", "CN_ratio","dC13_percent","dN15_percent", "Dry_Mass_g.log", "LDMC", "Leaf_Area_cm2.log", "Leaf_Thickness_Ave_mm.log", "N_percent", "P_percent", "SLA_cm2_g", "Wet_Mass_g.log"), names_to = "traits", values_to = "value")

There we go:

Step 1: Summarize the CWM for each trait (but now we also group by year for calculating)

cwm <- traits.wtsL %>% 
group_by(Site, traits) %>% 
  summarise(wm = weighted.mean(value, wts, na.rm=TRUE))

cwm
#> # A tibble: 48 x 3
#> # Groups:   Site [4]
#>    Site  traits                         wm
#>    <fct> <chr>                       <dbl>
#>  1 L     C_percent                  44.8  
#>  2 L     CN_ratio                   16.5  
#>  3 L     dC13_percent              -28.7  
#>  4 L     dN15_percent                0.601
#>  5 L     Dry_Mass_g.log             -3.61 
#>  6 L     LDMC                        0.219
#>  7 L     Leaf_Area_cm2.log           1.80 
#>  8 L     Leaf_Thickness_Ave_mm.log  -1.62 
#>  9 L     N_percent                   2.67 
#> 10 L     P_percent                   0.185
#> # ... with 38 more rows
…
